Assignment 3
…
  # Sorter etter år
  # Ensure data is sorted by year
  arrange(year) %>%
  
  # Beregn år-til-år-endring i levealder
  # Compute year-to-year life expectancy change
  mutate(lifeExp_change = lifeExp - lag(lifeExp))

# Skriv ut levealdergevinst per land
# Print life expectancy gain per country
gapminder_life_gain

# A tibble: 142 × 13
# Groups:   country [142]
   country `1952` `1957` `1962` `1967` `1972` `1977` `1982` `1987` `1992` `1997`
   <fct>    <dbl>  <dbl>  <dbl>  <dbl>  <dbl>  <dbl>  <dbl>  <dbl>  <dbl>  <dbl>
 1 Afghan…      0  1.53    3.20   5.22   7.29   9.64  11.1   12.0   12.9   13.0 
 2 Albania      0  4.05    9.59  11.0   12.5   13.7   15.2   16.8   16.4   17.7 
 3 Algeria      0  2.61    5.23   8.33  11.4   14.9   18.3   22.7   24.7   26.1 
 4 Angola       0  1.98    3.98   5.97   7.91   9.47   9.93   9.89  10.6   10.9 
 5 Argent…      0  1.91    2.66   3.15   4.58   6.00   7.46   8.29   9.38  10.8 
 6 Austra…      0  1.21    1.81   1.98   2.81   4.37   5.62   7.20   8.44   9.71
 7 Austria      0  0.680   2.74   3.34   3.83   5.37   6.38   8.14   9.24  10.7 
 8 Bahrain      0  2.89    5.98   8.98  12.4   14.7   18.1   19.8   21.7   23.0 
 9 Bangla…      0  1.86    3.73   5.97   7.77   9.44  12.5   15.3   18.5   21.9 
10 Belgium      0  1.24    2.25   2.94   3.44   4.8    5.93   7.35   8.46   9.53
# ℹ 132 more rows
# ℹ 2 more variables: `2002` <dbl>, `2007` <dbl>
…
# A tibble: 5 × 3
# Groups:   continent [5]
  continent country     min_5yr_drop
  <fct>     <fct>              <dbl>
1 Africa    Rwanda           -20.4  
2 Americas  El Salvador       -1.51 
3 Asia      Cambodia          -9.10 
4 Europe    Montenegro        -1.46 
5 Oceania   Australia          0.170

# Skriv ut år-til-år-endring i levealder per land
# Print yearly change in life expectancy per country
gapminder_yearly_change

# A tibble: 1,704 × 7
# Groups:   country [142]
   country     continent  year lifeExp      pop gdpPercap lifeExp_change
   <fct>       <fct>     <int>   <dbl>    <int>     <dbl>          <dbl>
 1 Afghanistan Asia       1952    28.8  8425333      779.             NA
 2 Albania     Europe     1952    55.2  1282697     1601.             NA
 3 Algeria     Africa     1952    43.1  9279525     2449.             NA
 4 Angola      Africa     1952    30.0  4232095     3521.             NA
 5 Argentina   Americas   1952    62.5 17876956     5911.             NA
 6 Australia   Oceania    1952    69.1  8691212    10040.             NA
 7 Austria     Europe     1952    66.8  6927772     6137.             NA
 8 Bahrain     Asia       1952    50.9   120447     9867.             NA
 9 Bangladesh  Asia       1952    37.5 46886859      684.             NA
10 Belgium     Europe     1952    68    8730405     8343.             NA
# ℹ 1,694 more rows
…
